{
    "sections": [
        {
            "title": "Pages",
            "items": [
                {
                    "title": "Home",
                    "iconClass": "fas fa-home",
                    "code": "home"
                },
                {
                    "title": "Dashboard",
                    "iconClass": "fas fa-user",
                    "code": "dashboard"
                },
                {
                    "title": "Applications",
                    "iconClass": "far fa-window-restore",
                    "code": "applications"
                },
                {
                    "title": "Objects",
                    "iconClass": "fas fa-object-ungroup",
                    "code": "objects"
                },
                {
                    "title": "Contact",
                    "iconClass": "fas fa-envelope",
                    "code": "contact"
                }
            ]
        }
    ]
}